Date,Description,Amount
3/Jan/15,Asset Sold,22000.00
,,
1/Feb/15,Securities Purchased,9990.00
,,10.00
,,
1/Mar/15,Stock Dividend,50.00 
,,
1/Jan/15,Interest,12000.00
,,
,,
,,
1/Oct/15,Stamp Duty,201.50
,,
1/Nov/15,Dividends,100.00 
,,
1/Dec/15,Funds Transfer - Outgoing,100000.00
1/Dec/15,Funds Transfer - Outgoing,300.00
,,
1/Jan/16,Funds Transfer - Incoming,99950.00